{
  "get": {
    "access": "authenticated"
  },
  "post": {
    "access": "authenticated"
  },
  "put": {
    "access": "disabled"
  },
  "patch": {
    "access": "disabled"
  },
  "delete": {
    "access": "disabled"
  }
}
